<?xml version="1.0" encoding="utf-8"?>
<!-- Generator: Adobe Illustrator 22.1.0, SVG Export Plug-In . SVG Version: 6.00 Build 0)  -->
<svg fill="#fff" version="1.1" id="Layer_1" xmlns="http://www.w3.org/2000/svg" xmlns:xlink="http://www.w3.org/1999/xlink" x="0px" y="0px"
	 viewBox="0 0 21 22" style="enable-background:new 0 0 21 22;" xml:space="preserve">
<title>Menu / Ico / Track</title>
<desc>Created with Sketch.</desc>
<g>
	<path d="M20,5.8l-4.3-3.9c-0.1-0.1-0.3-0.2-0.5-0.2c0,0,0,0,0,0H5.7l0,0c-0.2,0-0.3,0.1-0.4,0.2L1,5.8C0.8,6,0.7,6.2,0.8,6.4v13.1
		c0,0.4,0.3,0.7,0.7,0.7h18.1c0.4,0,0.7-0.3,0.7-0.7V6.4C20.3,6.2,20.2,6,20,5.8z M8.4,3.7C8.3,3.5,8.1,3.5,7.9,3.5c0,0,0,0,0,0H5.8
		L6,3.2h9l0.3,0.2l-2.2,0c-0.4,0-0.7,0.4-0.7,0.8c0,0.2,0.1,0.4,0.2,0.5c0.1,0.1,0.3,0.2,0.5,0.2h3.7l0.8,0.7H3.4l0.8-0.7h3.7
		c0.2,0,0.4-0.1,0.5-0.2c0.1-0.1,0.2-0.3,0.2-0.5C8.6,4,8.5,3.8,8.4,3.7z M18.8,7.1v11.7H2.2V7.1H18.8z"/>
	<path d="M14.8,13.2C14.8,13.2,14.8,13.2,14.8,13.2c0.2,0,0.3-0.1,0.5-0.2v2.1c0,0.2,0.1,0.4,0.2,0.5c0.1,0.1,0.3,0.2,0.5,0.2
		s0.4-0.1,0.5-0.2c0.1-0.1,0.2-0.3,0.2-0.5V13c0.1,0.1,0.3,0.2,0.5,0.2c0.2,0,0.4-0.1,0.5-0.2c0.3-0.3,0.3-0.8,0-1l-1.2-1.2
		c-0.2-0.2-0.4-0.2-0.6-0.2c-0.2,0-0.3,0.1-0.4,0.2l-1.2,1.2c-0.3,0.3-0.3,0.8,0,1C14.4,13.1,14.6,13.2,14.8,13.2z"/>
	<path d="M10,13.2C10,13.2,10,13.2,10,13.2c0.2,0,0.3-0.1,0.5-0.2v2.1c0,0.2,0.1,0.4,0.2,0.5c0.1,0.1,0.3,0.2,0.5,0.2
		s0.4-0.1,0.5-0.2c0.1-0.1,0.2-0.3,0.2-0.5V13c0.1,0.1,0.3,0.2,0.5,0.2c0.2,0,0.4-0.1,0.5-0.2c0.3-0.3,0.3-0.8,0-1l-1.2-1.2
		c-0.2-0.2-0.4-0.2-0.6-0.2c-0.2,0-0.3,0.1-0.4,0.2l-1.2,1.2c-0.3,0.3-0.3,0.8,0,1C9.6,13.1,9.8,13.2,10,13.2z"/>
	<path d="M10,17.8C10,17.8,10,17.8,10,17.8l7.1,0c0.2,0,0.4-0.1,0.5-0.2c0.1-0.1,0.2-0.3,0.2-0.5s-0.1-0.4-0.2-0.5
		c-0.1-0.1-0.3-0.2-0.5-0.2c0,0,0,0,0,0H10c-0.4,0-0.7,0.4-0.7,0.8c0,0.2,0.1,0.4,0.2,0.5C9.7,17.7,9.8,17.8,10,17.8z"/>
</g>
</svg>
