<?xml version="1.0" encoding="utf-8"?>
<!-- Generator: Adobe Illustrator 16.0.0, SVG Export Plug-In . SVG Version: 6.00 Build 0)  -->
<!DOCTYPE svg PUBLIC "-//W3C//DTD SVG 1.1//EN" "http://www.w3.org/Graphics/SVG/1.1/DTD/svg11.dtd">
<svg version="1.1" id="Слой_1" xmlns="http://www.w3.org/2000/svg" xmlns:xlink="http://www.w3.org/1999/xlink" x="0px" y="0px"
	 width="68px" height="36px" viewBox="15.5 18.5 68 36" enable-background="new 15.5 18.5 68 36" xml:space="preserve">
<g>
	<path fill="#8F3095" d="M44.087,34.769c0.174-0.259,0.34-0.512,0.494-0.76c0.155-0.247,0.318-0.515,0.495-0.803
		c0.174-0.287,0.334-0.569,0.479-0.843c0.146-0.272,0.259-0.557,0.339-0.846c0.081-0.292,0.121-0.59,0.121-0.898
		c0-0.306-0.061-0.638-0.177-0.996c-0.204-0.624-0.568-1.038-1.089-1.241c-0.521-0.203-1.227-0.16-2.121,0.134
		c-0.123,0.038-0.285,0.099-0.488,0.18c-0.205,0.083-0.421,0.174-0.646,0.278c-0.226,0.102-0.452,0.215-0.684,0.339
		c-0.229,0.122-0.427,0.25-0.595,0.384c-0.128,0.108-0.197,0.201-0.212,0.279c-0.014,0.077-0.008,0.154,0.018,0.231l0.157,0.525
		c0.032,0.096,0.073,0.154,0.123,0.171c0.048,0.018,0.125,0,0.235-0.055c0.288-0.144,0.628-0.298,1.017-0.464
		c0.389-0.167,0.778-0.313,1.17-0.441c0.539-0.176,0.932-0.227,1.18-0.148c0.247,0.077,0.42,0.27,0.521,0.573
		c0.065,0.2,0.096,0.399,0.088,0.601c-0.007,0.199-0.043,0.395-0.104,0.59c-0.061,0.194-0.142,0.384-0.24,0.569
		c-0.097,0.188-0.205,0.377-0.325,0.568c-0.113,0.183-0.231,0.37-0.352,0.563c-0.118,0.194-0.235,0.377-0.348,0.546
		c-0.113,0.172-0.211,0.325-0.297,0.459c-0.086,0.136-0.148,0.232-0.186,0.293c-0.069,0.109-0.186,0.285-0.342,0.522
		c-0.158,0.241-0.324,0.495-0.5,0.764c-0.177,0.27-0.349,0.533-0.515,0.79c-0.167,0.258-0.294,0.458-0.381,0.602
		c-0.047,0.094-0.075,0.177-0.082,0.253c-0.011,0.074-0.011,0.153-0.002,0.238l0.1,0.789c0.014,0.161,0.1,0.215,0.256,0.163
		l5.554-1.821c0.147-0.047,0.209-0.149,0.187-0.308l-0.117-0.881c-0.023-0.158-0.108-0.212-0.256-0.165l-3.714,1.216l-0.025-0.036
		c0.271-0.405,0.507-0.762,0.703-1.066C43.724,35.311,43.91,35.027,44.087,34.769z"/>
	<path fill="#8F3095" d="M47.748,33.87c0.013,0.094,0.044,0.15,0.099,0.171c0.056,0.02,0.117,0.02,0.188-0.005l4.076-1.352
		l0.264,2.081c0.021,0.156,0.103,0.211,0.242,0.165l0.99-0.323c0.089-0.028,0.144-0.071,0.17-0.128
		c0.025-0.055,0.033-0.122,0.028-0.197l-0.259-2.067l0.957-0.298c0.148-0.048,0.209-0.151,0.188-0.308l-0.117-0.884
		c-0.01-0.15-0.095-0.2-0.251-0.148l-0.952,0.312l-0.666-5.331c-0.007-0.057-0.03-0.099-0.064-0.131
		c-0.034-0.033-0.092-0.036-0.17-0.011l-0.925,0.303c-0.105,0.034-0.187,0.077-0.245,0.131c-0.059,0.055-0.113,0.127-0.161,0.219
		l-3.406,6.564c-0.047,0.093-0.072,0.174-0.08,0.243c-0.005,0.07-0.007,0.137-0.005,0.204L47.748,33.87z M50.707,29.506l0.779-1.542
		l0.052-0.018l0.414,3.417l-2.66,0.874L50.707,29.506z"/>
	<path fill="#8F3095" d="M56.874,39.426l0.136-0.721c0.036-0.165-0.031-0.248-0.205-0.248h-6.038c-0.156,0-0.247,0.083-0.276,0.248
		l-0.163,0.873C50.3,39.727,50.359,39.8,50.505,39.8h4.487l-4.912,7.123c-0.063,0.1-0.094,0.174-0.089,0.219
		c0.003,0.046,0.047,0.091,0.131,0.136l0.851,0.44c0.136,0.074,0.255,0.032,0.356-0.123l5.311-7.683
		C56.759,39.727,56.837,39.564,56.874,39.426z"/>
	<path fill="#8F3095" d="M41.201,44.228c0.134,0,0.264-0.057,0.355-0.166c0.067-0.082,6.762-8.093,18.646-8.525
		c0.253-0.01,0.449-0.222,0.441-0.471c-0.011-0.256-0.226-0.447-0.474-0.443c-12.312,0.447-19.251,8.775-19.32,8.86
		c-0.161,0.196-0.131,0.483,0.063,0.644C40.997,44.195,41.1,44.228,41.201,44.228z"/>
	<path fill="#8F3095" d="M64.109,34.547c-1.101-6.406-6.627-11.239-13.433-11.747c-0.255-0.021-0.473,0.169-0.492,0.421
		c-0.019,0.252,0.17,0.472,0.423,0.491c6.389,0.478,11.571,4.996,12.6,10.989c1.035,6.023-2.45,12.088-8.329,14.618l0.493-0.786
		c0.134-0.213,0.069-0.496-0.146-0.631c-0.212-0.133-0.496-0.069-0.631,0.144l-1.644,2.627l3.569,0.382
		c0.016,0.001,0.033,0.001,0.05,0.001c0.231,0,0.43-0.174,0.453-0.41c0.027-0.251-0.153-0.478-0.405-0.502l-1.083-0.116
		C61.619,47.259,65.199,40.885,64.109,34.547z"/>
	<path fill="#8F3095" d="M48.646,48.841c-6.451-0.183-11.862-4.553-12.868-10.398c-1.045-6.085,2.948-12.202,9.313-14.329
		l-0.51,0.864c-0.128,0.218-0.058,0.498,0.161,0.627c0.072,0.044,0.152,0.063,0.23,0.063c0.156,0,0.309-0.08,0.395-0.226
		l1.601-2.708l-3.269-0.776c-0.244-0.058-0.491,0.093-0.55,0.34c-0.057,0.245,0.094,0.493,0.341,0.55l1.469,0.349
		c-3.307,1.065-6.146,3.178-8.001,5.955c-1.9,2.844-2.64,6.201-2.08,9.448c1.079,6.271,6.858,10.965,13.743,11.156
		c0.004,0,0.009,0,0.014,0c0.248,0,0.449-0.196,0.457-0.445C49.099,49.06,48.898,48.849,48.646,48.841z"/>
</g>
</svg>
