<?xml version="1.0" encoding="UTF-8" standalone="no"?>
<svg width="44px" height="44px" viewBox="0 0 60 60" version="1.1" xmlns="http://www.w3.org/2000/svg" xmlns:xlink="http://www.w3.org/1999/xlink">
    <!-- Generator: Sketch 44.1 (41455) - http://www.bohemiancoding.com/sketch -->
    <title>073</title>
    <desc>Created with Sketch.</desc>
    <defs></defs>
    <g id="Symbols" stroke="none" stroke-width="1" fill="none" fill-rule="evenodd">
        <g id="073" fill="#009fff">
            <path d="M48.0935294,37.2960678 C43.6429412,37.2960678 40.0270588,33.8275678 39.7641176,29.4788178 L48.0617647,17.9078178 L56.4211765,29.4805678 C56.1582353,33.8275678 52.5423529,37.2960678 48.0935294,37.2960678 M11.9082353,30.0825678 C7.45764706,30.0825678 3.84352941,26.6158178 3.58058824,22.2670678 L11.9082353,10.7328178 L20.2358824,22.2670678 C19.9729412,26.6158178 16.3570588,30.0825678 11.9082353,30.0825678 M59.9629412,28.8050678 C59.9505882,28.6878178 59.9294118,28.5758178 59.8923529,28.4620678 C59.8552941,28.3448178 59.8058824,28.2398178 59.7441176,28.1348178 C59.7141176,28.0805678 59.7070588,28.0193178 59.67,27.9685678 L49.4894118,13.8758178 C49.4364706,13.8023178 49.3588235,13.7603178 49.2970588,13.6973178 C49.2776471,13.6763178 49.2582353,13.6553178 49.2370588,13.6360678 C49.1788235,13.5835678 49.1435294,13.5153178 49.0782353,13.4680678 C49.0729412,13.4645678 49.0676471,13.4645678 49.0623529,13.4610678 C49.0464706,13.4505678 49.0270588,13.4435678 49.0111765,13.4313178 C48.9035294,13.3630678 48.7835294,13.3298178 48.6652941,13.2860678 C48.5805882,13.2545678 48.5029412,13.2020678 48.4164706,13.1845678 C48.4111765,13.1828178 48.4076471,13.1793178 48.4023529,13.1793178 L12.2982353,6.01831778 C12.2964706,6.01831778 12.2947059,6.01831778 12.2929412,6.01656778 L12.2541176,6.00956778 C12.2452941,6.00781778 12.2364706,6.01131778 12.2258824,6.00956778 C12.1217647,5.99031778 12.0158824,6.00606778 11.9082353,6.00606778 C11.8005882,6.00606778 11.6929412,5.99031778 11.5870588,6.01131778 C11.5711765,6.01306778 11.5552941,6.01306778 11.5394118,6.01656778 C11.4547059,6.03406778 11.3788235,6.08656778 11.2958824,6.11806778 C11.2905882,6.11981778 11.2835294,6.12331778 11.2782353,6.12506778 C11.1705882,6.16706778 11.0594118,6.19331778 10.9605882,6.25631778 C10.9411765,6.26856778 10.9252941,6.27906778 10.9058824,6.29131778 C10.8988235,6.29656778 10.89,6.29656778 10.8811765,6.30356778 C10.8141176,6.35081778 10.7770588,6.42081778 10.7170588,6.47681778 C10.6941176,6.49956778 10.6711765,6.52056778 10.6482353,6.54506778 C10.5917647,6.60281778 10.5211765,6.63956778 10.4735294,6.70781778 L10.4488235,6.74106778 C10.4488235,6.74106778 10.4488235,6.74106778 10.4488235,6.74106778 L0.33,20.7550678 C0.291176471,20.8093178 0.284117647,20.8705678 0.252352941,20.9265678 C0.194117647,21.0280678 0.144705882,21.1313178 0.107647059,21.2450678 C0.0705882353,21.3605678 0.0494117647,21.4743178 0.0370588235,21.5950678 C0.03,21.6563178 0,21.7105678 0,21.7735678 C0,28.2853178 5.34176471,33.5825678 11.9082353,33.5825678 C18.4747059,33.5825678 23.8147059,28.2853178 23.8147059,21.7735678 C23.8147059,21.7105678 23.7847059,21.6563178 23.7776471,21.5950678 C23.7652941,21.4743178 23.7458824,21.3623178 23.7070588,21.2450678 C23.67,21.1313178 23.6223529,21.0280678 23.5623529,20.9265678 C23.5323529,20.8705678 23.5235294,20.8075678 23.4864706,20.7550678 L15.9458824,10.3110678 L29.2464706,12.9483178 C29.2288235,13.0515678 29.1847059,13.1443178 29.1847059,13.2528178 L29.1847059,51.7528178 C29.1847059,52.7188178 29.9735294,53.5028178 30.9494118,53.5028178 C31.9252941,53.5028178 32.7141176,52.7188178 32.7141176,51.7528178 L32.7141176,13.6360678 L45.0388235,16.0808178 L36.5117647,27.9738178 C36.4729412,28.0263178 36.4658824,28.0875678 36.4358824,28.1435678 C36.3758824,28.2450678 36.3282353,28.3483178 36.2929412,28.4620678 C36.2558824,28.5775678 36.2347059,28.6895678 36.2223529,28.8085678 C36.2152941,28.8698178 36.1852941,28.9240678 36.1852941,28.9870678 C36.1852941,35.4988178 41.5270588,40.7960678 48.0935294,40.7960678 C54.66,40.7960678 60,35.4988178 60,28.9870678 C60,28.9223178 59.97,28.8680678 59.9629412,28.8050678" id="Fill-1"></path>
        </g>
    </g>
</svg>