<?xml version="1.0" encoding="utf-8"?>
<!-- Generator: Adobe Illustrator 16.0.0, SVG Export Plug-In . SVG Version: 6.00 Build 0)  -->
<!DOCTYPE svg PUBLIC "-//W3C//DTD SVG 1.1//EN" "http://www.w3.org/Graphics/SVG/1.1/DTD/svg11.dtd">
<svg version="1.1" id="Layer_1" xmlns="http://www.w3.org/2000/svg" xmlns:xlink="http://www.w3.org/1999/xlink" x="0px" y="0px"
	 width="27px" height="27px" viewBox="-5 18.5 27 27" enable-background="new -5 18.5 27 27" xml:space="preserve">
<g>
	<rect x="-4.974" y="18.514" fill="#009FFF" width="13.487" height="13.487"/>
	<rect x="8.513" y="18.514" width="13.487" height="13.487"/>
	<path fill="#FFFFFF" d="M15.256,27.848c-1.408,0-2.59-1.143-2.59-2.591c0-1.409,1.143-2.591,2.59-2.591
		c1.41,0,2.592,1.145,2.592,2.591C17.848,26.705,16.704,27.848,15.256,27.848 M15.256,20.457c-2.628,0-4.8,2.133-4.8,4.8
		c0,2.629,2.133,4.802,4.8,4.802c2.629,0,4.801-2.134,4.801-4.802C20.057,22.629,17.924,20.457,15.256,20.457z"/>
	<rect x="8.513" y="32.001" fill="#009FFF" width="13.487" height="13.485"/>
	<path fill="#FFFFFF" d="M15.256,41.335c-1.408,0-2.552-1.144-2.552-2.553c0-1.41,1.144-2.554,2.552-2.554
		c1.41,0,2.553,1.144,2.553,2.554C17.848,40.191,16.704,41.335,15.256,41.335 M15.256,34.02c-2.628,0-4.762,2.135-4.762,4.764
		c0,2.628,2.134,4.762,4.762,4.762c2.629,0,4.762-2.134,4.762-4.762C20.018,36.152,17.885,34.02,15.256,34.02z"/>
	<rect x="-4.974" y="32.001" width="13.487" height="13.485"/>
	<polyline fill="#FFFFFF" points="6.227,34.173 3.979,34.173 1.77,38.134 -0.44,34.173 -2.65,34.173 0.741,40.039 0.741,43.354 
		2.798,43.354 2.798,40.001 6.227,34.173 	"/>
	<polyline fill="#FFFFFF" points="-3.107,20.725 -2.688,20.725 -0.974,20.725 -0.517,20.725 1.731,26.096 3.979,20.725 
		4.551,20.725 6.151,20.725 6.646,20.725 6.646,29.829 4.551,29.829 4.551,24.533 2.303,29.829 1.198,29.829 -0.783,25.182 
		-0.974,24.686 -0.974,29.829 -3.107,29.829 -3.107,20.725 	"/>
</g>
</svg>
