<?xml version="1.0" encoding="utf-8"?>
<!-- Generator: Adobe Illustrator 16.0.0, SVG Export Plug-In . SVG Version: 6.00 Build 0)  -->
<!DOCTYPE svg PUBLIC "-//W3C//DTD SVG 1.1//EN" "http://www.w3.org/Graphics/SVG/1.1/DTD/svg11.dtd">
<svg version="1.1" id="Слой_1" xmlns="http://www.w3.org/2000/svg" xmlns:xlink="http://www.w3.org/1999/xlink" x="0px" y="0px"
	 width="27px" height="27px" viewBox="-5 18.5 27 27" enable-background="new -5 18.5 27 27" xml:space="preserve">
<g>
	<path fill="#34495E" d="M17.841,42.177L17.841,42.177c-0.246,0-0.442-0.098-0.59-0.246c-0.148-0.147-0.246-0.345-0.246-0.589
		c0-0.246,0.098-0.443,0.246-0.591c0.147-0.147,0.344-0.246,0.59-0.246s0.442,0.099,0.59,0.246c0.146,0.147,0.246,0.345,0.246,0.591
		c0,0.244-0.1,0.441-0.246,0.589C18.283,42.079,18.087,42.177,17.841,42.177L17.841,42.177z M19.414,35.195l0.983,1.033v0.836
		h-5.064v-3.393h2.36L19.414,35.195z M5.157,42.177L5.157,42.177c-0.197,0-0.394-0.098-0.59-0.246
		c-0.147-0.147-0.246-0.345-0.246-0.589c0-0.246,0.099-0.443,0.246-0.591c0.148-0.147,0.345-0.246,0.59-0.246
		c0.246,0,0.443,0.099,0.59,0.246s0.246,0.345,0.246,0.591c0,0.244-0.099,0.441-0.246,0.589C5.6,42.079,5.403,42.177,5.157,42.177
		L5.157,42.177z M2.649,38.784h17.748v1.672h-0.148c-0.146-0.442-0.442-0.836-0.884-1.18c-0.443-0.345-0.935-0.492-1.475-0.492
		c-0.542,0-1.033,0.147-1.476,0.492c-0.394,0.295-0.689,0.688-0.885,1.18H7.566c-0.148-0.442-0.443-0.836-0.885-1.18
		c-0.443-0.345-0.935-0.492-1.475-0.492c-0.542,0-1.032,0.147-1.475,0.492c-0.394,0.295-0.688,0.688-0.885,1.18H2.649V38.784
		L2.649,38.784z M13.613,29.492v7.621H2.649v-5.162c0.639-0.196,1.278-0.492,1.818-0.934c0.541-0.443,0.984-0.935,1.377-1.525
		H13.613L13.613,29.492z M4.32,27.084L4.32,27.084c0-0.245-0.098-0.492-0.294-0.591c-0.147-0.147-0.344-0.245-0.59-0.245H1.764
		v-2.557c0-0.246-0.099-0.441-0.245-0.59c-0.148-0.147-0.345-0.246-0.59-0.246c-0.246,0-0.442,0.099-0.59,0.246
		c-0.147,0.148-0.245,0.344-0.245,0.59v4.229h3.392c0.246,0,0.442-0.1,0.59-0.246C4.223,27.526,4.32,27.33,4.32,27.084L4.32,27.084z
		 M-2.414,37.113c-0.246,0-0.443,0.099-0.59,0.245c-0.147,0.148-0.246,0.344-0.246,0.59s0.098,0.442,0.246,0.591
		c0.147,0.147,0.344,0.245,0.59,0.245h0.835c0.246,0,0.442-0.098,0.589-0.245c0.148-0.148,0.247-0.345,0.247-0.591
		s-0.099-0.441-0.247-0.59c-0.147-0.146-0.343-0.245-0.589-0.245H-2.414z M0.929,21.971L0.929,21.971
		c1.18,0,2.163,0.442,3.048,1.279c0.835,0.835,1.229,1.818,1.229,2.998s-0.394,2.163-1.229,2.998
		c-0.836,0.837-1.819,1.229-2.999,1.229c-1.18,0-2.164-0.393-2.999-1.229c-0.836-0.835-1.229-1.818-1.229-2.998
		s0.393-2.163,1.229-2.998C-1.234,22.413-0.202,21.971,0.929,21.971L0.929,21.971z M-4.135,35.393L-4.135,35.393h2.557
		c0.246,0,0.442-0.099,0.589-0.246c0.148-0.147,0.247-0.344,0.247-0.589c0-0.247-0.099-0.443-0.247-0.591
		c-0.147-0.148-0.343-0.246-0.589-0.246h-2.557c-0.246,0-0.442,0.098-0.59,0.246c-0.147,0.147-0.246,0.344-0.246,0.591
		c0,0.245,0.098,0.441,0.246,0.589S-4.381,35.393-4.135,35.393L-4.135,35.393z M0.929,32.148L0.929,32.148v9.094
		c0,0.246,0.098,0.443,0.246,0.59c0.147,0.147,0.344,0.247,0.589,0.247h0.984c0.197,0.442,0.491,0.835,0.934,1.179
		c0.442,0.345,0.934,0.492,1.524,0.492c0.541,0,1.032-0.147,1.475-0.492c0.442-0.295,0.737-0.688,0.934-1.179h7.818
		c0.195,0.442,0.49,0.835,0.933,1.179c0.394,0.345,0.935,0.492,1.476,0.492c0.59,0,1.081-0.147,1.524-0.492
		c0.393-0.295,0.688-0.688,0.884-1.179h0.886c0.245,0,0.442-0.1,0.59-0.246c0.147-0.147,0.246-0.345,0.246-0.591v-5.456
		c0-0.099,0-0.197-0.049-0.296c-0.05-0.098-0.099-0.196-0.197-0.295l-1.278-1.328l-0.049-0.049l-1.918-1.72
		c-0.049-0.05-0.147-0.099-0.245-0.147c-0.1-0.049-0.197-0.049-0.295-0.049h-2.655v-3.394c0-0.245-0.099-0.441-0.245-0.589
		c-0.148-0.148-0.346-0.246-0.591-0.246H6.632c0.049-0.246,0.098-0.491,0.147-0.737c0.05-0.246,0.05-0.491,0.05-0.787
		c0-0.836-0.147-1.573-0.443-2.311c-0.295-0.688-0.738-1.326-1.278-1.868c-0.541-0.541-1.13-0.983-1.868-1.278
		c-0.738-0.294-1.524-0.442-2.311-0.442s-1.574,0.148-2.311,0.442c-0.688,0.295-1.327,0.737-1.868,1.278
		c-0.541,0.542-0.984,1.131-1.278,1.868c-0.295,0.737-0.442,1.525-0.442,2.311c0,0.836,0.147,1.573,0.442,2.311
		c0.294,0.737,0.737,1.377,1.278,1.918c0.541,0.541,1.13,0.982,1.868,1.277C-0.645,32,0.142,32.148,0.929,32.148L0.929,32.148z"/>
</g>
</svg>
