<?xml version="1.0" encoding="utf-8"?>
<!-- Generator: Adobe Illustrator 16.0.0, SVG Export Plug-In . SVG Version: 6.00 Build 0)  -->
<!DOCTYPE svg PUBLIC "-//W3C//DTD SVG 1.1//EN" "http://www.w3.org/Graphics/SVG/1.1/DTD/svg11.dtd">
<svg version="1.1" id="Слой_1" xmlns="http://www.w3.org/2000/svg" xmlns:xlink="http://www.w3.org/1999/xlink" x="0px" y="0px"
	 width="170.909px" height="57.252px" viewBox="0 0 170.909 57.252" enable-background="new 0 0 170.909 57.252"
	 xml:space="preserve">
<g>
	<defs>
		<rect id="SVGID_1_" y="0" width="170.909" height="57.252"/>
	</defs>
	<clipPath id="SVGID_2_">
		<use xlink:href="#SVGID_1_"  overflow="visible"/>
	</clipPath>
	<path clip-path="url(#SVGID_2_)" fill="#ffffff" d="M162.443,57.252H8.467C3.798,57.252,0,53.454,0,48.785V8.467
		C0,3.798,3.798,0,8.467,0h153.977c4.668,0,8.466,3.798,8.466,8.467v40.317C170.909,53.454,167.111,57.252,162.443,57.252 M8.467,2
		C4.902,2,2,4.901,2,8.467v40.317c0,3.566,2.902,6.468,6.467,6.468h153.977c3.565,0,6.466-2.901,6.466-6.468V8.467
		c0-3.566-2.9-6.467-6.466-6.467H8.467z"/>
	<path clip-path="url(#SVGID_2_)" fill="#ffffff" d="M56.794,16.711H55.66c0-0.156-0.108-0.598-0.323-1.326h-1.639
		c-0.222,0.716-0.333,1.159-0.333,1.326h-1.068c0-0.092,0.276-0.849,0.828-2.27c0.552-1.421,0.828-2.204,0.828-2.348h1.341
		c0,0.134,0.25,0.906,0.751,2.314C56.544,15.816,56.794,16.584,56.794,16.711 M55.156,14.707c-0.404-1.22-0.607-1.88-0.607-1.979
		h-0.056c0,0.092-0.21,0.752-0.628,1.979H55.156z"/>
	<path clip-path="url(#SVGID_2_)" fill="#ffffff" d="M61.369,16.711h-0.876c0-0.097-0.326-0.609-0.976-1.536
		c-0.681-0.977-1.069-1.645-1.163-2.004h-0.057c0.059,0.518,0.088,0.986,0.088,1.404c0,0.585,0.017,1.297,0.05,2.136h-0.872
		c0.035-0.733,0.053-1.538,0.053-2.416c0-0.863-0.018-1.597-0.053-2.203h1.053c0,0.126,0.292,0.626,0.876,1.501
		c0.622,0.929,0.979,1.559,1.072,1.891h0.053c-0.057-0.528-0.085-1.001-0.085-1.419c0-0.641-0.017-1.299-0.05-1.973h0.887
		c-0.033,0.587-0.05,1.321-0.05,2.203C61.319,15.184,61.336,15.99,61.369,16.711"/>
	<path clip-path="url(#SVGID_2_)" fill="#ffffff" d="M66.51,14.242c0,0.672-0.215,1.259-0.645,1.76
		c-0.431,0.501-1.034,0.752-1.809,0.752c-0.35,0-0.833-0.014-1.448-0.043c0.031-0.714,0.046-1.519,0.046-2.415
		c0-0.861-0.015-1.595-0.046-2.203h0.621c0.102,0,0.253-0.004,0.454-0.011c0.201-0.007,0.332-0.011,0.394-0.011
		c0.854,0,1.473,0.213,1.857,0.639C66.318,13.136,66.51,13.646,66.51,14.242 M65.542,14.395c0-0.454-0.133-0.837-0.397-1.148
		c-0.265-0.31-0.67-0.466-1.214-0.466c-0.101,0-0.241,0.01-0.418,0.032c0.023,0.473,0.035,0.967,0.035,1.483
		c0,0.565,0.012,1.126,0.036,1.681c0.153,0.031,0.307,0.046,0.461,0.046c0.508,0,0.885-0.158,1.13-0.473
		C65.42,15.234,65.542,14.849,65.542,14.395"/>
	<path clip-path="url(#SVGID_2_)" fill="#ffffff" d="M71.251,16.711h-1.05c-0.274-0.838-0.485-1.354-0.631-1.551
		c-0.147-0.196-0.383-0.294-0.71-0.294c-0.137,0-0.268,0.001-0.393,0.004c0,0.607,0.01,1.221,0.031,1.841h-0.986
		c0.031-0.715,0.046-1.52,0.046-2.416c0-0.861-0.015-1.595-0.046-2.203h0.614c0.071,0,0.219-0.004,0.445-0.011
		c0.226-0.007,0.435-0.01,0.626-0.01c1.086,0,1.629,0.371,1.629,1.114c0,0.588-0.31,0.999-0.93,1.231v0.053
		c0.239,0.066,0.448,0.252,0.628,0.558C70.704,15.334,70.946,15.896,71.251,16.711 M69.921,13.447c0-0.47-0.303-0.706-0.908-0.706
		c-0.223,0-0.419,0.017-0.589,0.05c0.026,0.366,0.039,0.844,0.039,1.433c0.13,0.005,0.24,0.007,0.33,0.007
		C69.545,14.231,69.921,13.97,69.921,13.447"/>
	<path clip-path="url(#SVGID_2_)" fill="#ffffff" d="M76.336,14.316c0,0.726-0.222,1.328-0.667,1.806
		c-0.444,0.478-0.994,0.716-1.649,0.716c-0.625,0-1.147-0.219-1.568-0.658c-0.421-0.438-0.632-0.996-0.632-1.672
		c0-0.726,0.222-1.328,0.667-1.806c0.445-0.478,0.995-0.717,1.65-0.717c0.624,0,1.147,0.219,1.568,0.657
		C76.126,13.08,76.336,13.637,76.336,14.316 M75.357,14.419c0-0.494-0.126-0.895-0.38-1.203c-0.253-0.307-0.565-0.461-0.936-0.461
		c-0.345,0-0.639,0.155-0.88,0.465c-0.241,0.31-0.362,0.701-0.362,1.174c0,0.492,0.127,0.892,0.382,1.201
		c0.254,0.309,0.566,0.463,0.934,0.463c0.346,0,0.639-0.155,0.88-0.467C75.236,15.281,75.357,14.891,75.357,14.419"/>
	<path clip-path="url(#SVGID_2_)" fill="#ffffff" d="M78.342,16.711h-1.004c0.031-0.733,0.046-1.538,0.046-2.416
		c0-0.863-0.015-1.597-0.046-2.203h1.004c-0.031,0.596-0.046,1.331-0.046,2.203C78.296,15.187,78.312,15.992,78.342,16.711"/>
	<path clip-path="url(#SVGID_2_)" fill="#ffffff" d="M83.484,14.242c0,0.672-0.215,1.259-0.645,1.76
		c-0.431,0.501-1.034,0.752-1.809,0.752c-0.35,0-0.833-0.014-1.448-0.043c0.031-0.714,0.046-1.519,0.046-2.415
		c0-0.861-0.015-1.595-0.046-2.203h0.621c0.102,0,0.253-0.004,0.454-0.011c0.201-0.007,0.332-0.011,0.394-0.011
		c0.854,0,1.473,0.213,1.857,0.639C83.292,13.136,83.484,13.646,83.484,14.242 M82.516,14.395c0-0.454-0.133-0.837-0.397-1.148
		c-0.265-0.31-0.67-0.466-1.214-0.466c-0.101,0-0.241,0.01-0.418,0.032c0.023,0.473,0.035,0.967,0.035,1.483
		c0,0.565,0.012,1.126,0.036,1.681c0.153,0.031,0.307,0.046,0.461,0.046c0.508,0,0.885-0.158,1.13-0.473
		C82.394,15.234,82.516,14.849,82.516,14.395"/>
	<path clip-path="url(#SVGID_2_)" fill="#ffffff" d="M90.306,16.711h-1.135c0-0.156-0.108-0.598-0.323-1.326h-1.639
		c-0.223,0.716-0.334,1.159-0.334,1.326h-1.067c0-0.092,0.276-0.849,0.828-2.27c0.552-1.421,0.828-2.204,0.828-2.348h1.341
		c0,0.134,0.25,0.906,0.751,2.314C90.056,15.816,90.306,16.584,90.306,16.711 M88.667,14.707c-0.404-1.22-0.607-1.88-0.607-1.979
		h-0.057c0,0.092-0.209,0.752-0.627,1.979H88.667z"/>
	<path clip-path="url(#SVGID_2_)" fill="#ffffff" d="M94.443,13.302c0,0.565-0.21,0.982-0.63,1.252
		c-0.419,0.27-0.935,0.404-1.544,0.404c-0.112,0-0.191-0.002-0.238-0.007c0,0.445,0.013,1.032,0.039,1.76h-0.997
		c0.031-0.683,0.046-1.489,0.046-2.416c0-0.851-0.015-1.586-0.046-2.203h0.617c0.088,0,0.256-0.003,0.504-0.011
		c0.248-0.007,0.464-0.01,0.646-0.01c0.449,0,0.829,0.102,1.14,0.305C94.288,12.579,94.443,12.888,94.443,13.302 M93.528,13.497
		c0-0.506-0.336-0.759-1.008-0.759c-0.168,0-0.345,0.017-0.532,0.053c0.026,0.447,0.039,0.953,0.039,1.518
		c0.059,0.005,0.128,0.007,0.206,0.007C93.097,14.316,93.528,14.043,93.528,13.497"/>
	<path clip-path="url(#SVGID_2_)" fill="#ffffff" d="M98.698,13.302c0,0.565-0.21,0.982-0.629,1.252
		c-0.42,0.27-0.936,0.404-1.545,0.404c-0.112,0-0.191-0.002-0.238-0.007c0,0.445,0.013,1.032,0.039,1.76h-0.997
		c0.031-0.683,0.046-1.489,0.046-2.416c0-0.851-0.015-1.586-0.046-2.203h0.617c0.088,0,0.256-0.003,0.504-0.011
		c0.248-0.007,0.464-0.01,0.646-0.01c0.449,0,0.829,0.102,1.14,0.305C98.543,12.579,98.698,12.888,98.698,13.302 M97.783,13.497
		c0-0.506-0.336-0.759-1.008-0.759c-0.168,0-0.346,0.017-0.532,0.053c0.025,0.447,0.039,0.953,0.039,1.518
		c0.059,0.005,0.128,0.007,0.206,0.007C97.351,14.316,97.783,14.043,97.783,13.497"/>
	<path clip-path="url(#SVGID_2_)" fill="#ffffff" d="M105.654,14.316c0,0.726-0.222,1.328-0.667,1.806s-0.994,0.716-1.648,0.716
		c-0.625,0-1.147-0.219-1.568-0.658c-0.421-0.438-0.632-0.996-0.632-1.672c0-0.726,0.222-1.328,0.667-1.806
		c0.444-0.478,0.995-0.717,1.649-0.717c0.624,0,1.147,0.219,1.568,0.657C105.444,13.08,105.654,13.637,105.654,14.316
		 M104.676,14.419c0-0.494-0.126-0.895-0.381-1.203c-0.253-0.307-0.564-0.461-0.936-0.461c-0.345,0-0.639,0.155-0.88,0.465
		c-0.241,0.31-0.362,0.701-0.362,1.174c0,0.492,0.127,0.892,0.382,1.201c0.254,0.309,0.565,0.463,0.935,0.463
		c0.346,0,0.639-0.155,0.88-0.467C104.555,15.281,104.676,14.891,104.676,14.419"/>
	<path clip-path="url(#SVGID_2_)" fill="#ffffff" d="M110.463,16.711h-0.876c0-0.097-0.325-0.609-0.976-1.536
		c-0.682-0.977-1.069-1.645-1.163-2.004h-0.058c0.06,0.518,0.089,0.986,0.089,1.404c0,0.585,0.017,1.297,0.05,2.136h-0.872
		c0.034-0.733,0.053-1.538,0.053-2.416c0-0.863-0.019-1.597-0.053-2.203h1.053c0,0.126,0.292,0.626,0.876,1.501
		c0.622,0.929,0.979,1.559,1.072,1.891h0.053c-0.057-0.528-0.085-1.001-0.085-1.419c0-0.641-0.017-1.299-0.05-1.973h0.887
		c-0.033,0.587-0.05,1.321-0.05,2.203C110.413,15.184,110.43,15.99,110.463,16.711"/>
	<path clip-path="url(#SVGID_2_)" fill="#ffffff" d="M68.613,31.509c0,2.292-0.68,4.119-2.04,5.479
		c-1.544,1.62-3.554,2.431-6.029,2.431c-2.369,0-4.383-0.821-6.04-2.465c-1.659-1.643-2.488-3.68-2.488-6.109
		c0-2.43,0.829-4.466,2.488-6.109c1.657-1.643,3.671-2.464,6.04-2.464c1.176,0,2.299,0.228,3.37,0.687
		c1.069,0.458,1.926,1.071,2.567,1.834l-1.444,1.445c-1.085-1.299-2.583-1.95-4.493-1.95c-1.728,0-3.221,0.608-4.482,1.824
		c-1.26,1.214-1.891,2.793-1.891,4.733c0,1.941,0.631,3.519,1.891,4.734c1.261,1.215,2.754,1.822,4.482,1.822
		c1.834,0,3.362-0.611,4.585-1.834c0.795-0.795,1.253-1.903,1.375-3.324h-5.96v-1.972H68.5C68.575,30.7,68.613,31.112,68.613,31.509
		"/>
	<path clip-path="url(#SVGID_2_)" fill="#ffffff" d="M71.113,29.159c1.085-1.138,2.467-1.708,4.149-1.708
		c1.681,0,3.063,0.57,4.15,1.708c1.084,1.139,1.626,2.564,1.626,4.276s-0.542,3.137-1.626,4.275
		c-1.087,1.139-2.469,1.708-4.15,1.708c-1.682,0-3.064-0.569-4.149-1.708s-1.628-2.563-1.628-4.275S70.028,30.298,71.113,29.159
		 M72.683,36.38c0.726,0.741,1.585,1.112,2.579,1.112c0.993,0,1.853-0.371,2.579-1.112s1.089-1.723,1.089-2.945
		s-0.363-2.204-1.089-2.946c-0.726-0.741-1.586-1.111-2.579-1.111c-0.994,0-1.853,0.37-2.579,1.111
		c-0.727,0.742-1.089,1.724-1.089,2.946S71.956,35.639,72.683,36.38"/>
	<path clip-path="url(#SVGID_2_)" fill="#ffffff" d="M83.377,29.159c1.085-1.138,2.468-1.708,4.149-1.708s3.063,0.57,4.15,1.708
		c1.085,1.139,1.626,2.564,1.626,4.276s-0.541,3.137-1.626,4.275c-1.087,1.139-2.47,1.708-4.15,1.708s-3.064-0.569-4.149-1.708
		s-1.628-2.563-1.628-4.275S82.292,30.298,83.377,29.159 M84.947,36.38c0.726,0.741,1.585,1.112,2.579,1.112
		c0.993,0,1.853-0.371,2.579-1.112c0.726-0.741,1.089-1.723,1.089-2.945s-0.363-2.204-1.089-2.946
		c-0.727-0.741-1.586-1.111-2.579-1.111c-0.994,0-1.854,0.37-2.579,1.111c-0.727,0.742-1.089,1.724-1.089,2.946
		S84.22,35.639,84.947,36.38"/>
	<path clip-path="url(#SVGID_2_)" fill="#ffffff" d="M99.539,44.37c-1.33,0-2.415-0.332-3.256-0.997s-1.444-1.426-1.811-2.281
		l1.926-0.802c0.214,0.61,0.607,1.123,1.181,1.535c0.572,0.413,1.226,0.619,1.96,0.619c1.161,0,2.074-0.348,2.739-1.043
		s0.997-1.639,0.997-2.831v-1.077h-0.092c-0.367,0.55-0.887,1.009-1.559,1.375c-0.673,0.367-1.43,0.551-2.27,0.551
		c-1.452,0-2.705-0.573-3.76-1.72s-1.582-2.567-1.582-4.264s0.527-3.118,1.582-4.265c1.055-1.146,2.308-1.719,3.76-1.719
		c0.84,0,1.597,0.184,2.27,0.55c0.672,0.367,1.191,0.825,1.559,1.376h0.092v-1.56h2.018v10.66c0,1.926-0.559,3.389-1.674,4.391
		C102.504,43.869,101.144,44.37,99.539,44.37 M99.699,37.493c0.993,0,1.838-0.367,2.533-1.101c0.696-0.733,1.043-1.72,1.043-2.957
		c0-1.238-0.347-2.224-1.043-2.957c-0.695-0.734-1.54-1.101-2.533-1.101c-0.979,0-1.819,0.37-2.521,1.111
		c-0.704,0.742-1.056,1.724-1.056,2.946s0.352,2.203,1.056,2.945C97.88,37.122,98.721,37.493,99.699,37.493"/>
	<rect x="107.288" y="22.637" clip-path="url(#SVGID_2_)" fill="#ffffff" width="2.108" height="16.414"/>
	<path clip-path="url(#SVGID_2_)" fill="#ffffff" d="M116.364,39.418c-1.696,0-3.076-0.564-4.138-1.697
		c-1.063-1.13-1.594-2.56-1.594-4.286c0-1.636,0.516-3.04,1.548-4.219c1.031-1.176,2.35-1.765,3.954-1.765
		c1.666,0,2.999,0.543,4,1.628s1.502,2.537,1.502,4.355l-0.022,0.39h-8.871c0.06,1.131,0.438,2.025,1.134,2.682
		c0.695,0.657,1.509,0.986,2.441,0.986c1.513,0,2.537-0.643,3.072-1.926l1.879,0.779c-0.366,0.871-0.971,1.602-1.811,2.189
		C118.618,39.124,117.587,39.418,116.364,39.418 M119.391,32.083c-0.046-0.643-0.341-1.253-0.883-1.834
		c-0.543-0.581-1.349-0.871-2.419-0.871c-0.779,0-1.455,0.244-2.028,0.733s-0.967,1.146-1.181,1.972H119.391z"/>
	<path clip-path="url(#SVGID_2_)" fill="#ffffff" d="M129.936,39.051h-2.109V22.637h5.594c1.391,0,2.594,0.463,3.61,1.387
		c1.017,0.925,1.524,2.091,1.524,3.496c0,1.406-0.508,2.572-1.524,3.496c-1.017,0.925-2.22,1.387-3.61,1.387h-3.484V39.051z
		 M129.936,30.386h3.53c0.886,0,1.597-0.299,2.132-0.895c0.535-0.595,0.803-1.253,0.803-1.972c0-0.718-0.268-1.375-0.803-1.971
		c-0.535-0.597-1.246-0.895-2.132-0.895h-3.53V30.386z"/>
	<rect x="139.931" y="22.637" clip-path="url(#SVGID_2_)" fill="#ffffff" width="2.108" height="16.414"/>
	<path clip-path="url(#SVGID_2_)" fill="#ffffff" d="M147.472,39.418c-1.192,0-2.189-0.345-2.991-1.032
		c-0.803-0.688-1.204-1.597-1.204-2.728c0-1.223,0.475-2.182,1.422-2.877s2.116-1.043,3.507-1.043c1.238,0,2.256,0.229,3.05,0.688
		v-0.321c0-0.825-0.283-1.486-0.849-1.982c-0.565-0.497-1.261-0.745-2.086-0.745c-0.61,0-1.166,0.146-1.662,0.436
		c-0.497,0.29-0.837,0.688-1.021,1.191l-1.926-0.825c0.26-0.672,0.771-1.294,1.536-1.869c0.764-0.573,1.772-0.859,3.026-0.859
		c1.438,0,2.628,0.421,3.576,1.261c0.947,0.841,1.421,2.025,1.421,3.554v6.785h-2.017v-1.559h-0.092
		C150.322,38.776,149.092,39.418,147.472,39.418 M147.815,37.493c0.871,0,1.662-0.325,2.373-0.975s1.066-1.417,1.066-2.304
		c-0.597-0.489-1.49-0.733-2.683-0.733c-1.024,0-1.796,0.222-2.315,0.664c-0.52,0.444-0.779,0.963-0.779,1.56
		c0,0.55,0.236,0.985,0.711,1.307C146.661,37.332,147.204,37.493,147.815,37.493"/>
	<polygon clip-path="url(#SVGID_2_)" fill="#ffffff" points="157.857,44.002 155.68,44.002 158.294,38.34 153.662,27.817 
		155.954,27.817 159.302,35.888 159.348,35.888 162.603,27.817 164.895,27.817 	"/>
	<path clip-path="url(#SVGID_2_)" fill="#ffffff" d="M12.678,30.566c0-5.243,0.002-10.485-0.002-15.728
		c-0.001-0.644,0.124-1.231,0.58-1.717c0.177-0.189,0.305-0.24,0.522-0.018c3.528,3.6,7.063,7.191,10.599,10.783
		c2.289,2.326,4.578,4.653,6.877,6.97c0.223,0.225,0.242,0.343,0.006,0.578c-5.623,5.591-11.24,11.186-16.843,16.797
		c-0.343,0.342-0.583,0.306-0.911,0.053c-0.6-0.461-0.83-1.08-0.83-1.815c0.001-3.106-0.005-6.211-0.006-9.316
		c-0.002-2.195-0.001-4.391-0.001-6.586H12.678z"/>
	<path clip-path="url(#SVGID_2_)" fill="#ffffff" d="M14.693,12.522c0.429-0.004,0.731,0.121,1.023,0.284
		c7.18,4.023,14.359,8.049,21.544,12.063c0.33,0.185,0.323,0.288,0.068,0.539c-1.606,1.58-3.199,3.173-4.791,4.767
		c-0.172,0.172-0.276,0.271-0.507,0.036c-5.712-5.826-11.433-11.643-17.153-17.463C14.831,12.7,14.791,12.643,14.693,12.522"/>
	<path clip-path="url(#SVGID_2_)" fill="#ffffff" d="M16.3,48.097c5.212-5.268,10.427-10.532,15.627-15.813
		c0.323-0.327,0.473-0.283,0.762,0.018c1.321,1.375,2.661,2.731,4.007,4.082c0.237,0.238,0.257,0.335-0.064,0.511
		C29.941,40.557,23.256,44.23,16.57,47.9C16.46,47.961,16.357,48.06,16.3,48.097"/>
	<path clip-path="url(#SVGID_2_)" fill="#ffffff" d="M46.074,30.711c-0.023,0.591-0.301,1.006-0.723,1.317
		c-0.312,0.229-0.657,0.419-0.997,0.607c-2.023,1.118-4.051,2.227-6.07,3.353c-0.272,0.15-0.434,0.145-0.659-0.088
		c-1.437-1.485-2.887-2.957-4.345-4.421c-0.212-0.213-0.218-0.329,0-0.544c1.698-1.674,3.387-3.355,5.069-5.045
		c0.198-0.199,0.34-0.222,0.587-0.082c1.998,1.133,4.006,2.249,6.009,3.372C45.564,29.529,46.047,29.978,46.074,30.711"/>
</g>
</svg>
