<?xml version="1.0" encoding="utf-8"?>
<!-- Generator: Adobe Illustrator 16.0.0, SVG Export Plug-In . SVG Version: 6.00 Build 0)  -->
<!DOCTYPE svg PUBLIC "-//W3C//DTD SVG 1.1//EN" "http://www.w3.org/Graphics/SVG/1.1/DTD/svg11.dtd">
<svg version="1.1" id="Слой_1" xmlns="http://www.w3.org/2000/svg" xmlns:xlink="http://www.w3.org/1999/xlink" x="0px" y="0px"
	 width="68px" height="36px" viewBox="15.5 18.5 68 36" enable-background="new 15.5 18.5 68 36" xml:space="preserve">
<g>
	<path fill="#1795CC" d="M41.295,38.605c2.685-4.494,3.699-4.641,5.149-6.598c-4.93,0-10.151,5.728-10.151,5.728L41.295,38.605z"/>
	<path fill="#1795CC" d="M48.186,49.699c0,0,5.727-5.22,5.727-10.151c-1.958,1.45-2.029,2.465-6.598,5.149L48.186,49.699z"/>
	<path fill="#1795CC" d="M61.527,24.611c-1.451-1.45-9.137,2.319-14.793,7.976c-1.74,1.74-4.061,5.512-4.061,5.512l5.293,5.293
		c0,0,3.625-2.465,5.366-4.205C58.989,33.531,63.121,26.279,61.527,24.611z M52.897,33.022c-0.943-1.015-0.943-2.537,0-3.552
		c0.943-0.944,2.537-0.944,3.481,0c0.942,0.941,0.942,2.537,0,3.479C55.435,33.965,53.912,33.965,52.897,33.022z"/>
</g>
</svg>
